cs 552/project/dump.vcd
$date
	Tue Mar 22 20:14:40 2011
$end
$version
	Icarus Verilog
$end
$timescale
	1ns
$end
$scope module tb_memory $end
$var wire 1 ! clk $end
$var wire 1 " err $end
$var wire 16 # read1data [15:0] $end
$var wire 1 $ rst $end
$var integer 32 % cycle_count [31:0] $end
$var reg 3 & read1regsel [2:0] $end
$var reg 3 ' read2regsel [2:0] $end
$var reg 16 ( ref_r1data [15:0] $end
$var reg 16 ) ref_r2data [15:0] $end
$var reg 1 * write $end
$var reg 16 + writedata [15:0] $end
$var reg 3 , writeregsel [2:0] $end
$scope module clk0 $end
$var wire 1 " err $end
$var reg 1 - clk $end
$var integer 32 . cycle_count [31:0] $end
$var reg 1 / rst $end
$upscope $end
$scope module DUT $end
$var wire 16 0 Addr [15:0] $end
$var wire 1 ! Clk $end
$var wire 16 1 Data [15:0] $end
$var wire 1 2 MemRead $end
$var wire 1 3 MemWrite $end
$var wire 16 4 ReadData [15:0] $end
$var wire 1 $ Rst $end
$var wire 16 5 readTemp [15:0] $end
$scope module memory0 $end
$var wire 16 6 addr [15:0] $end
$var wire 1 ! clk $end
$var wire 1 7 createdump $end
$var wire 16 8 data_in [15:0] $end
$var wire 16 9 data_out [15:0] $end
$var wire 1 : enable $end
$var wire 1 $ rst $end
$var wire 1 3 wr $end
$var integer 32 ; i [31:0] $end
$var reg 17 < largest [16:0] $end
$var reg 1 = loaded $end
$var integer 32 > mcd [31:0] $end
$upscope $end
$upscope $end
$upscope $end
$scope module tb_memory $end
$scope module clk0 $end
$upscope $end
$scope module DUT $end
$scope module memory0 $end
$upscope $end
$upscope $end
$upscope $end
$enddefinitions $end
#0
$dumpvars
bx >
0=
b0 <
b10000000000000000 ;
1:
bx 9
bx 8
07
bx 6
bx 5
bx 4
03
12
bx 1
bx 0
1/
b0 .
1-
bx ,
bx +
0*
b0 )
b0 (
bx '
bx &
b0 %
1$
bx #
z"
1!
$end
#50000000000
0-
0!
#100000000000
b0 #
b0 4
b0 5
b0 9
b1 .
1=
bx )
1*
13
b1 ,
b10 0
b10 6
b11010100100100 +
b11010100100100 1
b11010100100100 8
1-
1!
#100000000010
b1 %
#150000000000
0-
0!
#200000000000
b10 .
b101 ,
b1010 0
b1010 6
b101011001100011 +
b101011001100011 1
b101011001100011 8
1-
1!
#200000000010
b10 %
#201000000000
0/
0$
#250000000000
0-
0!
#300000000000
b11 .
b100 <
b10 ,
b100 0
b100 6
b1000010001100101 +
b1000010001100101 1
b1000010001100101 8
1-
1!
#300000000010
b11 %
#350000000000
0-
0!
#400000000000
b1100 <
b100 .
b110 ,
b1100 0
b1100 6
b1100110100001101 +
b1100110100001101 1
b1100110100001101 8
1-
1!
#400000000010
b100 %
#450000000000
0-
0!
#500000000000
b101 .
b100 ,
b1000 0
b1000 6
b101011111101101 +
b101011111101101 1
b101011111101101 8
1-
1!
#500000000010
b101 %
#550000000000
0-
0!
#600000000000
b110 .
0*
03
b101 ,
b1010 0
b1010 6
b10010011000110 +
b10010011000110 1
b10010011000110 8
1-
1!
#600000000010
b110 %
#650000000000
0-
0!
#700000000000
b111 .
b111 ,
b1110 0
b1110 6
b1111011111100101 +
b1111011111100101 1
b1111011111100101 8
1-
1!
#700000000010
b111 %
#750000000000
0-
0!
#800000000000
b1000010001100101 #
b1000010001100101 4
b1000010001100101 5
b1000010001100101 9
b1000 .
b1000010001100101 (
b10 ,
b100 0
b100 6
b1101101110001111 +
b1101101110001111 1
b1101101110001111 8
1-
1!
#800000000010
b1000 %
#850000000000
0-
0!
#900000000000
b0 #
b0 4
b0 5
b0 9
b1001 .
b0 (
b101 ,
b1010 0
b1010 6
b111101011101000 +
b111101011101000 1
b111101011101000 8
1-
1!
#900000000010
b1001 %
#950000000000
0-
0!
#1000000000000
b0 #
b0 4
b0 5
b0 9
b1010 .
1*
13
b10100010111101 +
b10100010111101 1
b10100010111101 8
1-
1!
#1000000000010
b1010 %
#1050000000000
0-
0!
#1100000000000
b1000010001100101 #
b1000010001100101 4
b1000010001100101 5
b1000010001100101 9
b1011 .
b1000010001100101 (
0*
03
b10 ,
b100 0
b100 6
b110001001100011 +
b110001001100011 1
b110001001100011 8
1-
1!
#1100000000010
b1011 %
#1150000000000
0-
0!
#1200000000000
b0 #
b0 4
b0 5
b0 9
b1100 .
1*
13
b10000100100000 +
b10000100100000 1
b10000100100000 8
1-
1!
#1200000000010
b1100 %
#1250000000000
0-
0!
#1300000000000
b1101 .
b0 (
b11 ,
b110 0
b110 6
b11111010010110 +
b11111010010110 1
b11111010010110 8
1-
1!
#1300000000010
b1101 %
#1350000000000
0-
0!
#1400000000000
b1110 .
b11111010010110 (
b1101011001010011 +
b1101011001010011 1
b1101011001010011 8
1-
1!
#1400000000010
b1110 %
#1450000000000
0-
0!
#1500000000000
b1111 .
b1100110100001101 (
b110 ,
b1100 0
b1100 6
b100101000000010 +
b100101000000010 1
b100101000000010 8
1-
1!
#1500000000010
b1111 %
#1550000000000
0-
0!
#1600000000000
b1101011001010011 #
b1101011001010011 4
b1101011001010011 5
b1101011001010011 9
b10000 .
b1101011001010011 (
0*
03
b11 ,
b110 0
b110 6
b111001011001111 +
b111001011001111 1
b111001011001111 8
1-
1!
#1600000000010
b10000 %
#1650000000000
0-
0!
#1700000000000
b101011111101101 #
b101011111101101 4
b101011111101101 5
b101011111101101 9
b10001 .
b101011111101101 (
b100 ,
b1000 0
b1000 6
b101011001010 +
b101011001010 1
b101011001010 8
1-
1!
#1700000000010
b10001 %
#1750000000000
0-
0!
#1800000000000
b0 #
b0 4
b0 5
b0 9
b10010 .
b0 (
b1 ,
b10 0
b10 6
b110000110001010 +
b110000110001010 1
b110000110001010 8
1-
1!
#1800000000010
b10010 %
#1850000000000
0-
0!
#1900000000000
b0 #
b0 4
b0 5
b0 9
b10011 .
1*
13
b1111001101111000 +
b1111001101111000 1
b1111001101111000 8
1-
1!
#1900000000010
b10011 %
#1950000000000
0-
0!
#2000000000000
b100101000000010 #
b100101000000010 4
b100101000000010 5
b100101000000010 9
b10100 .
b100101000000010 (
0*
03
b110 ,
b1100 0
b1100 6
b110010110110110 +
b110010110110110 1
b110010110110110 8
1-
1!
#2000000000010
b10100 %
#2050000000000
0-
0!
#2100000000000
b0 #
b0 4
b0 5
b0 9
b10101 .
b10000100100000 (
1*
13
b10 ,
b100 0
b100 6
b1010111100 +
b1010111100 1
b1010111100 8
1-
1!
#2100000000010
b10101 %
#2150000000000
0-
0!
#2200000000000
b10110 .
b10100010111101 (
b101 ,
b1010 0
b1010 6
b1011111001110001 +
b1011111001110001 1
b1011111001110001 8
1-
1!
#2200000000010
b10110 %
#2250000000000
0-
0!
#2300000000000
b1010111100 #
b1010111100 4
b1010111100 5
b1010111100 9
b10111 .
b1010111100 (
0*
03
b10 ,
b100 0
b100 6
b110000000111011 +
b110000000111011 1
b110000000111011 8
1-
1!
#2300000000010
b10111 %
#2350000000000
0-
0!
#2400000000000
b0 #
b0 4
b0 5
b0 9
b11000 .
b1111001101111000 (
1*
13
b1 ,
b10 0
b10 6
b100101100010101 +
b100101100010101 1
b100101100010101 8
1-
1!
#2400000000010
b11000 %
#2450000000000
0-
0!
#2500000000000
b11001 .
b101011111101101 (
b100 ,
b1000 0
b1000 6
b11101100010 +
b11101100010 1
b11101100010 8
1-
1!
#2500000000010
b11001 %
#2550000000000
0-
0!
#2600000000000
b11010 .
b0 (
b0 ,
b0 0
b0 6
b1010000110001111 +
b1010000110001111 1
b1010000110001111 8
1-
1!
#2600000000010
b11010 %
#2650000000000
0-
0!
#2700000000000
b11011 .
b11101100010 (
b100 ,
b1000 0
b1000 6
b101011010011111 +
b101011010011111 1
b101011010011111 8
1-
1!
#2700000000010
b11011 %
#2750000000000
0-
0!
#2800000000000
b100101100010101 #
b100101100010101 4
b100101100010101 5
b100101100010101 9
b11100 .
b100101100010101 (
0*
03
b1 ,
b10 0
b10 6
b11011110001001 +
b11011110001001 1
b11011110001001 8
1-
1!
#2800000000010
b11100 %
#2850000000000
0-
0!
#2900000000000
b11101 .
b1100000011010111 +
b1100000011010111 1
b1100000011010111 8
1-
1!
#2900000000010
b11101 %
#2950000000000
0-
0!
#3000000000000
b1010111100 #
b1010111100 4
b1010111100 5
b1010111100 9
b11110 .
b1010111100 (
b10 ,
b100 0
b100 6
b111111100001100 +
b111111100001100 1
b111111100001100 8
1-
1!
#3000000000010
b11110 %
#3050000000000
0-
0!
#3100000000000
b1011111001110001 #
b1011111001110001 4
b1011111001110001 5
b1011111001110001 9
b11111 .
b1011111001110001 (
b101 ,
b1010 0
b1010 6
b101101001110111 +
b101101001110111 1
b101101001110111 8
1-
1!
#3100000000010
b11111 %
#3150000000000
0-
0!
#3200000000000
b0 #
b0 4
b0 5
b0 9
b100000 .
1*
13
b1111110 +
b1111110 1
b1111110 8
1-
1!
#3200000000010
b100000 %
#3250000000000
0-
0!
#3300000000000
b100001 .
b1101011001010011 (
b11 ,
b110 0
b110 6
b1000111100011111 +
b1000111100011111 1
b1000111100011111 8
1-
1!
#3300000000010
b100001 %
#3350000000000
0-
0!
#3400000000000
b100010 .
b1000111100011111 (
b1000100001111000 +
b1000100001111000 1
b1000100001111000 8
1-
1!
#3400000000010
b100010 %
#3450000000000
0-
0!
#3500000000000
b1010111100 #
b1010111100 4
b1010111100 5
b1010111100 9
b100011 .
b1010111100 (
0*
03
b10 ,
b100 0
b100 6
b1010111000111111 +
b1010111000111111 1
b1010111000111111 8
1-
1!
#3500000000010
b100011 %
#3550000000000
0-
0!
#3600000000000
b100101000000010 #
b100101000000010 4
b100101000000010 5
b100101000000010 9
b100100 .
b100101000000010 (
b110 ,
b1100 0
b1100 6
b11100010000110 +
b11100010000110 1
b11100010000110 8
1-
1!
#3600000000010
b100100 %
#3650000000000
0-
0!
#3700000000000
b0 #
b0 4
b0 5
b0 9
b100101 .
1*
13
b1001100111111010 +
b1001100111111010 1
b1001100111111010 8
1-
1!
#3700000000010
b100101 %
#3750000000000
0-
0!
#3800000000000
b1110 <
b100110 .
b0 (
b111 ,
b1110 0
b1110 6
b1011010010100011 +
b1011010010100011 1
b1011010010100011 8
1-
1!
#3800000000010
b100110 %
#3850000000000
0-
0!
#3900000000000
b100111 .
b101011010011111 (
b100 ,
b1000 0
b1000 6
b101011001011111 +
b101011001011111 1
b101011001011111 8
1-
1!
#3900000000010
b100111 %
#3950000000000
0-
0!
#4000000000000
b1001100111111010 #
b1001100111111010 4
b1001100111111010 5
b1001100111111010 9
b101000 .
b1001100111111010 (
0*
03
b110 ,
b1100 0
b1100 6
b11011011001011 +
b11011011001011 1
b11011011001011 8
1-
1!
#4000000000010
b101000 %
#4050000000000
0-
0!
#4100000000000
b1111110 #
b1111110 4
b1111110 5
b1111110 9
b101001 .
b1111110 (
b101 ,
b1010 0
b1010 6
b1100000100101001 +
b1100000100101001 1
b1100000100101001 8
1-
1!
#4100000000010
b101001 %
#4150000000000
0-
0!
#4200000000000
b0 #
b0 4
b0 5
b0 9
b101010 .
1*
13
b1011011001100101 +
b1011011001100101 1
b1011011001100101 8
1-
1!
#4200000000010
b101010 %
#4250000000000
0-
0!
#4300000000000
b101011001011111 #
b101011001011111 4
b101011001011111 5
b101011001011111 9
b101011 .
b101011001011111 (
0*
03
b100 ,
b1000 0
b1000 6
b1100101111001 +
b1100101111001 1
b1100101111001 8
1-
1!
#4300000000010
b101011 %
#4350000000000
0-
0!
#4400000000000
b1000100001111000 #
b1000100001111000 4
b1000100001111000 5
b1000100001111000 9
b101100 .
b1000100001111000 (
b11 ,
b110 0
b110 6
b101100101010 +
b101100101010 1
b101100101010 8
1-
1!
#4400000000010
b101100 %
#4450000000000
0-
0!
#4500000000000
b0 #
b0 4
b0 5
b0 9
b101101 .
b1010111100 (
1*
13
b10 ,
b100 0
b100 6
b1010110111011100 +
b1010110111011100 1
b1010110111011100 8
1-
1!
#4500000000010
b101101 %
#4550000000000
0-
0!
#4600000000000
b1001100111111010 #
b1001100111111010 4
b1001100111111010 5
b1001100111111010 9
b101110 .
b1001100111111010 (
0*
03
b110 ,
b1100 0
b1100 6
b1011000011 +
b1011000011 1
b1011000011 8
1-
1!
#4600000000010
b101110 %
#4650000000000
0-
0!
#4700000000000
b1010110111011100 #
b1010110111011100 4
b1010110111011100 5
b1010110111011100 9
b101111 .
b1010110111011100 (
b10 ,
b100 0
b100 6
b111011001100111 +
b111011001100111 1
b111011001100111 8
1-
1!
#4700000000010
b101111 %
#4750000000000
0-
0!
#4800000000000
b100101100010101 #
b100101100010101 4
b100101100010101 5
b100101100010101 9
b110000 .
b100101100010101 (
b1 ,
b10 0
b10 6
b1000101000111000 +
b1000101000111000 1
b1000101000111000 8
1-
1!
#4800000000010
b110000 %
#4850000000000
0-
0!
#4900000000000
b1000100001111000 #
b1000100001111000 4
b1000100001111000 5
b1000100001111000 9
b110001 .
b1000100001111000 (
b11 ,
b110 0
b110 6
b1011111110010100 +
b1011111110010100 1
b1011111110010100 8
1-
1!
#4900000000010
b110001 %
#4950000000000
0-
0!
#5000000000000
b0 #
b0 4
b0 5
b0 9
b110010 .
1*
13
b1100101001011001 +
b1100101001011001 1
b1100101001011001 8
1-
1!
#5000000000010
b110010 %
#5050000000000
0-
0!
#5100000000000
b1011011001100101 #
b1011011001100101 4
b1011011001100101 5
b1011011001100101 9
b110011 .
b1011011001100101 (
0*
03
b101 ,
b1010 0
b1010 6
b1011011111011001 +
b1011011111011001 1
b1011011111011001 8
1-
1!
#5100000000010
b110011 %
