cs-552/hw2_2/dump.vcd
$date
	Wed Feb 16 21:16:54 2011
$end
$version
	Icarus Verilog
$end
$timescale
	1s
$end
$scope module tb_alu_add $end
$var wire 1 ! Clk $end
$var wire 1 " Ofl $end
$var wire 16 # Out [15:0] $end
$var wire 1 $ Rst $end
$var wire 1 % Z $end
$var reg 16 & A [15:0] $end
$var reg 16 ' B [15:0] $end
$var reg 17 ( BigSum [16:0] $end
$var reg 1 ) Cin $end
$var reg 1 * Err $end
$var reg 3 + Op [2:0] $end
$var reg 16 , Sum [15:0] $end
$var reg 1 - invA $end
$var reg 1 . invB $end
$var reg 1 / shouldOfl $end
$var reg 1 0 sign $end
$scope module clk $end
$var wire 1 1 err $end
$var reg 1 2 clk $end
$var integer 32 3 cycle_count [31:0] $end
$var reg 1 4 rst $end
$upscope $end
$scope module a1 $end
$var wire 16 5 A [15:0] $end
$var wire 1 6 AddCout $end
$var wire 16 7 AddOut [15:0] $end
$var wire 16 8 Ai [15:0] $end
$var wire 16 9 B [15:0] $end
$var wire 16 : Bi [15:0] $end
$var wire 1 ; Cin $end
$var wire 16 < O1 [15:0] $end
$var wire 1 " Ofl $end
$var wire 3 = Op [2:0] $end
$var wire 16 > Out [15:0] $end
$var wire 1 ? SignedOfl $end
$var wire 1 % Z $end
$var wire 1 @ invA $end
$var wire 1 A invB $end
$var wire 1 B sign $end
$var reg 16 C tmp [15:0] $end
$var reg 1 D tmpOfl $end
$scope module s1 $end
$var wire 4 E Cnt [3:0] $end
$var wire 16 F In [15:0] $end
$var wire 2 G Op [1:0] $end
$var wire 16 H Out [15:0] $end
$var wire 16 I eightOut [15:0] $end
$var wire 16 J fourEight [15:0] $end
$var wire 16 K oneTwo [15:0] $end
$var wire 16 L twoFour [15:0] $end
$scope module s1 $end
$var wire 1 M Go $end
$var wire 16 N In [15:0] $end
$var wire 2 O Op [1:0] $end
$var wire 16 P Out [15:0] $end
$var reg 16 Q tmp [15:0] $end
$upscope $end
$scope module s2 $end
$var wire 1 R Go $end
$var wire 16 S In [15:0] $end
$var wire 2 T Op [1:0] $end
$var wire 16 U Out [15:0] $end
$var wire 16 V tmp [15:0] $end
$var wire 16 W tmp2 [15:0] $end
$scope module s0 $end
$var wire 1 R Go $end
$var wire 16 X In [15:0] $end
$var wire 2 Y Op [1:0] $end
$var wire 16 Z Out [15:0] $end
$var reg 16 [ tmp [15:0] $end
$upscope $end
$scope module s1 $end
$var wire 1 R Go $end
$var wire 16 \ In [15:0] $end
$var wire 2 ] Op [1:0] $end
$var wire 16 ^ Out [15:0] $end
$var reg 16 _ tmp [15:0] $end
$upscope $end
$upscope $end
$scope module s4 $end
$var wire 1 ` Go $end
$var wire 16 a In [15:0] $end
$var wire 2 b Op [1:0] $end
$var wire 16 c Out [15:0] $end
$var wire 16 d tmp [15:0] $end
$var wire 16 e tmp2 [15:0] $end
$scope module s0 $end
$var wire 1 ` Go $end
$var wire 16 f In [15:0] $end
$var wire 2 g Op [1:0] $end
$var wire 16 h Out [15:0] $end
$var wire 16 i tmp [15:0] $end
$var wire 16 j tmp2 [15:0] $end
$scope module s0 $end
$var wire 1 ` Go $end
$var wire 16 k In [15:0] $end
$var wire 2 l Op [1:0] $end
$var wire 16 m Out [15:0] $end
$var reg 16 n tmp [15:0] $end
$upscope $end
$scope module s1 $end
$var wire 1 ` Go $end
$var wire 16 o In [15:0] $end
$var wire 2 p Op [1:0] $end
$var wire 16 q Out [15:0] $end
$var reg 16 r tmp [15:0] $end
$upscope $end
$upscope $end
$scope module s1 $end
$var wire 1 ` Go $end
$var wire 16 s In [15:0] $end
$var wire 2 t Op [1:0] $end
$var wire 16 u Out [15:0] $end
$var wire 16 v tmp [15:0] $end
$var wire 16 w tmp2 [15:0] $end
$scope module s0 $end
$var wire 1 ` Go $end
$var wire 16 x In [15:0] $end
$var wire 2 y Op [1:0] $end
$var wire 16 z Out [15:0] $end
$var reg 16 { tmp [15:0] $end
$upscope $end
$scope module s1 $end
$var wire 1 ` Go $end
$var wire 16 | In [15:0] $end
$var wire 2 } Op [1:0] $end
$var wire 16 ~ Out [15:0] $end
$var reg 16 !" tmp [15:0] $end
$upscope $end
$upscope $end
$upscope $end
$scope module s8 $end
$var wire 1 "" Go $end
$var wire 16 #" In [15:0] $end
$var wire 2 $" Op [1:0] $end
$var wire 16 %" Out [15:0] $end
$var wire 16 &" tmp [15:0] $end
$var wire 16 '" tmp2 [15:0] $end
$scope module s0 $end
$var wire 1 "" Go $end
$var wire 16 (" In [15:0] $end
$var wire 2 )" Op [1:0] $end
$var wire 16 *" Out [15:0] $end
$var wire 16 +" tmp [15:0] $end
$var wire 16 ," tmp2 [15:0] $end
$scope module s0 $end
$var wire 1 "" Go $end
$var wire 16 -" In [15:0] $end
$var wire 2 ." Op [1:0] $end
$var wire 16 /" Out [15:0] $end
$var wire 16 0" tmp [15:0] $end
$var wire 16 1" tmp2 [15:0] $end
$scope module s0 $end
$var wire 1 "" Go $end
$var wire 16 2" In [15:0] $end
$var wire 2 3" Op [1:0] $end
$var wire 16 4" Out [15:0] $end
$var reg 16 5" tmp [15:0] $end
$upscope $end
$scope module s1 $end
$var wire 1 "" Go $end
$var wire 16 6" In [15:0] $end
$var wire 2 7" Op [1:0] $end
$var wire 16 8" Out [15:0] $end
$var reg 16 9" tmp [15:0] $end
$upscope $end
$upscope $end
$scope module s1 $end
$var wire 1 "" Go $end
$var wire 16 :" In [15:0] $end
$var wire 2 ;" Op [1:0] $end
$var wire 16 <" Out [15:0] $end
$var wire 16 =" tmp [15:0] $end
$var wire 16 >" tmp2 [15:0] $end
$scope module s0 $end
$var wire 1 "" Go $end
$var wire 16 ?" In [15:0] $end
$var wire 2 @" Op [1:0] $end
$var wire 16 A" Out [15:0] $end
$var reg 16 B" tmp [15:0] $end
$upscope $end
$scope module s1 $end
$var wire 1 "" Go $end
$var wire 16 C" In [15:0] $end
$var wire 2 D" Op [1:0] $end
$var wire 16 E" Out [15:0] $end
$var reg 16 F" tmp [15:0] $end
$upscope $end
$upscope $end
$upscope $end
$scope module s1 $end
$var wire 1 "" Go $end
$var wire 16 G" In [15:0] $end
$var wire 2 H" Op [1:0] $end
$var wire 16 I" Out [15:0] $end
$var wire 16 J" tmp [15:0] $end
$var wire 16 K" tmp2 [15:0] $end
$scope module s0 $end
$var wire 1 "" Go $end
$var wire 16 L" In [15:0] $end
$var wire 2 M" Op [1:0] $end
$var wire 16 N" Out [15:0] $end
$var wire 16 O" tmp [15:0] $end
$var wire 16 P" tmp2 [15:0] $end
$scope module s0 $end
$var wire 1 "" Go $end
$var wire 16 Q" In [15:0] $end
$var wire 2 R" Op [1:0] $end
$var wire 16 S" Out [15:0] $end
$var reg 16 T" tmp [15:0] $end
$upscope $end
$scope module s1 $end
$var wire 1 "" Go $end
$var wire 16 U" In [15:0] $end
$var wire 2 V" Op [1:0] $end
$var wire 16 W" Out [15:0] $end
$var reg 16 X" tmp [15:0] $end
$upscope $end
$upscope $end
$scope module s1 $end
$var wire 1 "" Go $end
$var wire 16 Y" In [15:0] $end
$var wire 2 Z" Op [1:0] $end
$var wire 16 [" Out [15:0] $end
$var wire 16 \" tmp [15:0] $end
$var wire 16 ]" tmp2 [15:0] $end
$scope module s0 $end
$var wire 1 "" Go $end
$var wire 16 ^" In [15:0] $end
$var wire 2 _" Op [1:0] $end
$var wire 16 `" Out [15:0] $end
$var reg 16 a" tmp [15:0] $end
$upscope $end
$scope module s1 $end
$var wire 1 "" Go $end
$var wire 16 b" In [15:0] $end
$var wire 2 c" Op [1:0] $end
$var wire 16 d" Out [15:0] $end
$var reg 16 e" tmp [15:0] $end
$upscope $end
$upscope $end
$upscope $end
$upscope $end
$upscope $end
$scope module a1 $end
$var wire 16 f" A [15:0] $end
$var wire 16 g" B [15:0] $end
$var wire 3 h" C [2:0] $end
$var wire 1 ; Cin $end
$var wire 1 6 Cout $end
$var wire 4 i" G [3:0] $end
$var wire 4 j" P [3:0] $end
$var wire 16 k" S [15:0] $end
$scope module f1 $end
$var wire 4 l" A [3:0] $end
$var wire 4 m" B [3:0] $end
$var wire 1 n" G $end
$var wire 1 o" P $end
$var wire 4 p" gPartial [3:0] $end
$var wire 4 q" pPartial [3:0] $end
$scope module o1 $end
$var wire 1 r" A $end
$var wire 1 s" B $end
$var wire 1 t" G $end
$var wire 1 u" P $end
$upscope $end
$scope module o2 $end
$var wire 1 v" A $end
$var wire 1 w" B $end
$var wire 1 x" G $end
$var wire 1 y" P $end
$upscope $end
$scope module o3 $end
$var wire 1 z" A $end
$var wire 1 {" B $end
$var wire 1 |" G $end
$var wire 1 }" P $end
$upscope $end
$scope module o4 $end
$var wire 1 ~" A $end
$var wire 1 !# B $end
$var wire 1 "# G $end
$var wire 1 ## P $end
$upscope $end
$upscope $end
$scope module f2 $end
$var wire 4 $# A [3:0] $end
$var wire 4 %# B [3:0] $end
$var wire 1 &# G $end
$var wire 1 '# P $end
$var wire 4 (# gPartial [3:0] $end
$var wire 4 )# pPartial [3:0] $end
$scope module o1 $end
$var wire 1 *# A $end
$var wire 1 +# B $end
$var wire 1 ,# G $end
$var wire 1 -# P $end
$upscope $end
$scope module o2 $end
$var wire 1 .# A $end
$var wire 1 /# B $end
$var wire 1 0# G $end
$var wire 1 1# P $end
$upscope $end
$scope module o3 $end
$var wire 1 2# A $end
$var wire 1 3# B $end
$var wire 1 4# G $end
$var wire 1 5# P $end
$upscope $end
$scope module o4 $end
$var wire 1 6# A $end
$var wire 1 7# B $end
$var wire 1 8# G $end
$var wire 1 9# P $end
$upscope $end
$upscope $end
$scope module f3 $end
$var wire 4 :# A [3:0] $end
$var wire 4 ;# B [3:0] $end
$var wire 1 <# G $end
$var wire 1 =# P $end
$var wire 4 ># gPartial [3:0] $end
$var wire 4 ?# pPartial [3:0] $end
$scope module o1 $end
$var wire 1 @# A $end
$var wire 1 A# B $end
$var wire 1 B# G $end
$var wire 1 C# P $end
$upscope $end
$scope module o2 $end
$var wire 1 D# A $end
$var wire 1 E# B $end
$var wire 1 F# G $end
$var wire 1 G# P $end
$upscope $end
$scope module o3 $end
$var wire 1 H# A $end
$var wire 1 I# B $end
$var wire 1 J# G $end
$var wire 1 K# P $end
$upscope $end
$scope module o4 $end
$var wire 1 L# A $end
$var wire 1 M# B $end
$var wire 1 N# G $end
$var wire 1 O# P $end
$upscope $end
$upscope $end
$scope module f4 $end
$var wire 4 P# A [3:0] $end
$var wire 4 Q# B [3:0] $end
$var wire 1 R# G $end
$var wire 1 S# P $end
$var wire 4 T# gPartial [3:0] $end
$var wire 4 U# pPartial [3:0] $end
$scope module o1 $end
$var wire 1 V# A $end
$var wire 1 W# B $end
$var wire 1 X# G $end
$var wire 1 Y# P $end
$upscope $end
$scope module o2 $end
$var wire 1 Z# A $end
$var wire 1 [# B $end
$var wire 1 \# G $end
$var wire 1 ]# P $end
$upscope $end
$scope module o3 $end
$var wire 1 ^# A $end
$var wire 1 _# B $end
$var wire 1 `# G $end
$var wire 1 a# P $end
$upscope $end
$scope module o4 $end
$var wire 1 b# A $end
$var wire 1 c# B $end
$var wire 1 d# G $end
$var wire 1 e# P $end
$upscope $end
$upscope $end
$scope module a1 $end
$var wire 4 f# A [3:0] $end
$var wire 4 g# B [3:0] $end
$var wire 4 h# C [3:0] $end
$var wire 1 ; Cin $end
$var wire 4 i# S [3:0] $end
$scope module a1 $end
$var wire 1 j# A $end
$var wire 1 k# B $end
$var wire 1 ; Cin $end
$var wire 1 l# Cout $end
$var wire 1 m# S $end
$upscope $end
$scope module a2 $end
$var wire 1 n# A $end
$var wire 1 o# B $end
$var wire 1 p# Cin $end
$var wire 1 q# Cout $end
$var wire 1 r# S $end
$upscope $end
$scope module a3 $end
$var wire 1 s# A $end
$var wire 1 t# B $end
$var wire 1 u# Cin $end
$var wire 1 v# Cout $end
$var wire 1 w# S $end
$upscope $end
$scope module a4 $end
$var wire 1 x# A $end
$var wire 1 y# B $end
$var wire 1 z# Cin $end
$var wire 1 {# Cout $end
$var wire 1 |# S $end
$upscope $end
$upscope $end
$scope module a2 $end
$var wire 4 }# A [3:0] $end
$var wire 4 ~# B [3:0] $end
$var wire 4 !$ C [3:0] $end
$var wire 1 "$ Cin $end
$var wire 4 #$ S [3:0] $end
$scope module a1 $end
$var wire 1 $$ A $end
$var wire 1 %$ B $end
$var wire 1 "$ Cin $end
$var wire 1 &$ Cout $end
$var wire 1 '$ S $end
$upscope $end
$scope module a2 $end
$var wire 1 ($ A $end
$var wire 1 )$ B $end
$var wire 1 *$ Cin $end
$var wire 1 +$ Cout $end
$var wire 1 ,$ S $end
$upscope $end
$scope module a3 $end
$var wire 1 -$ A $end
$var wire 1 .$ B $end
$var wire 1 /$ Cin $end
$var wire 1 0$ Cout $end
$var wire 1 1$ S $end
$upscope $end
$scope module a4 $end
$var wire 1 2$ A $end
$var wire 1 3$ B $end
$var wire 1 4$ Cin $end
$var wire 1 5$ Cout $end
$var wire 1 6$ S $end
$upscope $end
$upscope $end
$scope module a3 $end
$var wire 4 7$ A [3:0] $end
$var wire 4 8$ B [3:0] $end
$var wire 4 9$ C [3:0] $end
$var wire 1 :$ Cin $end
$var wire 4 ;$ S [3:0] $end
$scope module a1 $end
$var wire 1 <$ A $end
$var wire 1 =$ B $end
$var wire 1 :$ Cin $end
$var wire 1 >$ Cout $end
$var wire 1 ?$ S $end
$upscope $end
$scope module a2 $end
$var wire 1 @$ A $end
$var wire 1 A$ B $end
$var wire 1 B$ Cin $end
$var wire 1 C$ Cout $end
$var wire 1 D$ S $end
$upscope $end
$scope module a3 $end
$var wire 1 E$ A $end
$var wire 1 F$ B $end
$var wire 1 G$ Cin $end
$var wire 1 H$ Cout $end
$var wire 1 I$ S $end
$upscope $end
$scope module a4 $end
$var wire 1 J$ A $end
$var wire 1 K$ B $end
$var wire 1 L$ Cin $end
$var wire 1 M$ Cout $end
$var wire 1 N$ S $end
$upscope $end
$upscope $end
$scope module a4 $end
$var wire 4 O$ A [3:0] $end
$var wire 4 P$ B [3:0] $end
$var wire 4 Q$ C [3:0] $end
$var wire 1 R$ Cin $end
$var wire 4 S$ S [3:0] $end
$scope module a1 $end
$var wire 1 T$ A $end
$var wire 1 U$ B $end
$var wire 1 R$ Cin $end
$var wire 1 V$ Cout $end
$var wire 1 W$ S $end
$upscope $end
$scope module a2 $end
$var wire 1 X$ A $end
$var wire 1 Y$ B $end
$var wire 1 Z$ Cin $end
$var wire 1 [$ Cout $end
$var wire 1 \$ S $end
$upscope $end
$scope module a3 $end
$var wire 1 ]$ A $end
$var wire 1 ^$ B $end
$var wire 1 _$ Cin $end
$var wire 1 `$ Cout $end
$var wire 1 a$ S $end
$upscope $end
$scope module a4 $end
$var wire 1 b$ A $end
$var wire 1 c$ B $end
$var wire 1 d$ Cin $end
$var wire 1 e$ Cout $end
$var wire 1 f$ S $end
$upscope $end
$upscope $end
$upscope $end
$upscope $end
$upscope $end
$enddefinitions $end
#0
$dumpvars
1f$
0e$
1d$
0c$
0b$
0a$
1`$
1_$
0^$
1]$
0\$
1[$
1Z$
0Y$
1X$
0W$
1V$
0U$
1T$
b1000 S$
1R$
b111 Q$
b0 P$
b111 O$
0N$
1M$
1L$
0K$
1J$
0I$
1H$
1G$
0F$
1E$
0D$
1C$
1B$
0A$
1@$
0?$
1>$
0=$
1<$
b0 ;$
1:$
b1111 9$
b0 8$
b1111 7$
06$
15$
14$
03$
12$
01$
10$
1/$
0.$
1-$
0,$
1+$
1*$
0)$
1($
0'$
1&$
0%$
1$$
b0 #$
1"$
b1111 !$
b0 ~#
b1111 }#
0|#
1{#
1z#
0y#
1x#
0w#
1v#
1u#
0t#
1s#
0r#
1q#
1p#
0o#
1n#
0m#
1l#
1k#
1j#
b0 i#
b1111 h#
b1 g#
b1111 f#
0e#
0d#
0c#
0b#
1a#
0`#
0_#
1^#
1]#
0\#
0[#
1Z#
1Y#
0X#
0W#
1V#
b111 U#
b0 T#
0S#
0R#
b0 Q#
b111 P#
1O#
0N#
0M#
1L#
1K#
0J#
0I#
1H#
1G#
0F#
0E#
1D#
1C#
0B#
0A#
1@#
b1111 ?#
b0 >#
1=#
0<#
b0 ;#
b1111 :#
19#
08#
07#
16#
15#
04#
03#
12#
11#
00#
0/#
1.#
1-#
0,#
0+#
1*#
b1111 )#
b0 (#
1'#
0&#
b0 %#
b1111 $#
1##
0"#
0!#
1~"
1}"
0|"
0{"
1z"
1y"
0x"
0w"
1v"
0u"
1t"
1s"
1r"
b1110 q"
b1 p"
0o"
1n"
b1 m"
b1111 l"
b1000000000000000 k"
b110 j"
b1 i"
b111 h"
b1 g"
b111111111111111 f"
b1111111111111101 e"
b1111111111111110 d"
b0 c"
b1111111111111110 b"
b1111111111111101 a"
b1111111111111110 `"
b0 _"
b1111111111111110 ^"
b1111111111111110 ]"
b1111111111111110 \"
b1111111111111110 ["
b0 Z"
b1111111111111110 Y"
b1111111111111101 X"
b1111111111111110 W"
b0 V"
b1111111111111110 U"
b1111111111111101 T"
b1111111111111110 S"
b0 R"
b1111111111111110 Q"
b1111111111111110 P"
b1111111111111110 O"
b1111111111111110 N"
b0 M"
b1111111111111110 L"
b1111111111111110 K"
b1111111111111110 J"
b1111111111111110 I"
b0 H"
b1111111111111110 G"
b1111111111111101 F"
b1111111111111110 E"
b0 D"
b1111111111111110 C"
b1111111111111101 B"
b1111111111111110 A"
b0 @"
b1111111111111110 ?"
b1111111111111110 >"
b1111111111111110 ="
b1111111111111110 <"
b0 ;"
b1111111111111110 :"
b1111111111111101 9"
b1111111111111110 8"
b0 7"
b1111111111111110 6"
b1111111111111101 5"
b1111111111111110 4"
b0 3"
b1111111111111110 2"
b1111111111111110 1"
b1111111111111110 0"
b1111111111111110 /"
b0 ."
b1111111111111110 -"
b1111111111111110 ,"
b1111111111111110 +"
b1111111111111110 *"
b0 )"
b1111111111111110 ("
b1111111111111110 '"
b1111111111111110 &"
b1111111111111110 %"
b0 $"
b1111111111111110 #"
0""
b1111111111111101 !"
b1111111111111110 ~
b0 }
b1111111111111110 |
b1111111111111101 {
b1111111111111110 z
b0 y
b1111111111111110 x
b1111111111111110 w
b1111111111111110 v
b1111111111111110 u
b0 t
b1111111111111110 s
b1111111111111101 r
b1111111111111110 q
b0 p
b1111111111111110 o
b1111111111111101 n
b1111111111111110 m
b0 l
b1111111111111110 k
b1111111111111110 j
b1111111111111110 i
b1111111111111110 h
b0 g
b1111111111111110 f
b1111111111111110 e
b1111111111111110 d
b1111111111111110 c
b0 b
b1111111111111110 a
0`
b1111111111111101 _
b1111111111111110 ^
b0 ]
b1111111111111110 \
b1111111111111101 [
b1111111111111110 Z
b0 Y
b1111111111111110 X
b1111111111111110 W
b1111111111111110 V
b1111111111111110 U
b0 T
b1111111111111110 S
0R
b1111111111111110 Q
b1111111111111110 P
b0 O
b111111111111111 N
1M
b1111111111111110 L
b1111111111111110 K
b1111111111111110 J
b1111111111111110 I
b1111111111111110 H
b0 G
b111111111111111 F
b1 E
0D
b1000000000000000 C
0B
0A
0@
1?
b1000000000000000 >
b100 =
b1111111111111110 <
0;
b1 :
b1 9
b111111111111111 8
b1000000000000000 7
06
b111111111111111 5
14
b0 3
12
01
00
x/
0.
0-
bx ,
b100 +
0*
0)
bx (
b1 '
b111111111111111 &
0%
1$
b1000000000000000 #
0"
1!
$end
#50
02
0!
#100
1D
1"
b1 3
10
1B
b1000000000000000 ,
0/
b1000000000000000 (
12
1!
#150
02
0!
#200
0D
0"
00
0B
1/
b10 3
12
1!
#201
04
0$
#250
02
0!
#300
1D
1"
b11 3
10
1B
0/
12
1!
#350
02
0!
#400
0D
0"
00
0B
1/
b100 3
12
1!
#450
02
0!
#500
1D
1"
b101 3
10
1B
0/
12
1!
#550
02
0!
#600
0D
0"
00
0B
1/
b110 3
12
1!
#650
02
0!
#700
1D
1"
b111 3
10
1B
0/
12
1!
#750
02
0!
#800
0W$
1R$
16
0'$
1:$
1"$
b111 h"
1&#
1<#
1?
1n"
0|#
16$
1N$
1\$
1R#
b1111 i"
1r#
0'#
0=#
b0 j"
b1010100110000111 C
b1010100110000111 #
b1010100110000111 >
0p#
1w#
0,$
01$
b1000 #$
0D$
0I$
0a$
1f$
b1010 S$
1m#
b111 i#
1?$
b1010100110000111 7
b1010100110000111 k"
b1001 ;$
b1111011100110111 n
0l#
0u#
0z#
1*$
1/$
14$
1B$
1G$
1L$
1Z$
1_$
1d$
1u"
1"#
0##
b111 q"
18#
b1000 (#
09#
b111 )#
1B#
0C#
1N#
b1001 >#
0O#
b110 ?#
1\#
0]#
b101 U#
b1111101110011011 L
b1111101110011011 U
b1111101110011011 a
b1111101110011011 f
b1111101110011011 k
b111001101111111 5"
b1101110011011111 {
b1110111001101111 r
b1011100110111111 !"
b11011111110111 T"
b1100110111111101 B"
b1110011011111110 9"
b1001101111111011 F"
b1101111111011100 a"
b110111111101110 X"
b1011111110111001 e"
0q#
0v#
1{#
b1000 h#
1&$
1+$
10$
15$
b1111 !$
1>$
1C$
1H$
1M$
b1111 9$
1V$
1[$
1`$
1e$
b1111 Q$
b1111011100110111 _
b1111101110011011 W
b1111101110011011 ^
b1011100110111111 J
b1011100110111111 c
b1011100110111111 #"
b1011100110111111 ("
b1011100110111111 -"
b1011100110111111 2"
b1110111001101111 d
b1110111001101111 h
b1110111001101111 s
b1110111001101111 x
b1111011100110111 i
b1111011100110111 m
b1111011100110111 o
b1110111001101111 j
b1110111001101111 q
b1011100110111111 e
b1011100110111111 u
b1101110011011111 v
b1101110011011111 z
b1101110011011111 |
b1011100110111111 w
b1011100110111111 ~
b1011111110111001 I
b1011111110111001 %"
b1011111110111001 <
b1011111110111001 H
b1001101111111011 &"
b1001101111111011 *"
b1001101111111011 G"
b1001101111111011 L"
b1001101111111011 Q"
b1110011011111110 +"
b1110011011111110 /"
b1110011011111110 :"
b1110011011111110 ?"
b111001101111111 0"
b111001101111111 4"
b111001101111111 6"
b1110011011111110 1"
b1110011011111110 8"
b1001101111111011 ,"
b1001101111111011 <"
b1100110111111101 ="
b1100110111111101 A"
b1100110111111101 C"
b1001101111111011 >"
b1001101111111011 E"
b1011111110111001 '"
b1011111110111001 I"
b110111111101110 J"
b110111111101110 N"
b110111111101110 Y"
b110111111101110 ^"
b11011111110111 O"
b11011111110111 S"
b11011111110111 U"
b110111111101110 P"
b110111111101110 W"
b1011111110111001 K"
b1011111110111001 ["
b1101111111011100 \"
b1101111111011100 `"
b1101111111011100 b"
b1011111110111001 ]"
b1011111110111001 d"
0t"
b1000 p"
1d#
b1010 T#
b1111101110011011 V
b1111101110011011 Z
b1111101110011011 \
b1111011100110111 [
0M
0R
1`
1""
0s"
0w"
1{"
1!#
0+#
1/#
13#
17#
1A#
0E#
1I#
1M#
0W#
1[#
0_#
1c#
0k#
0o#
1t#
1y#
0%$
1)$
1.$
13$
1=$
0A$
1F$
1K$
0U$
1Y$
0^$
1c$
1r"
1v"
0z"
1~"
1*#
0.#
02#
16#
1@#
1D#
0H#
1L#
1V#
1Z#
1^#
1b#
1j#
1n#
0s#
1x#
1$$
0($
0-$
12$
1<$
1@$
0E$
1J$
1T$
1X$
1]$
1b$
b1111101110011011 K
b1111101110011011 P
b1111101110011011 S
b1111101110011011 X
b1100 E
b1100 m"
b1110 %#
b1101 ;#
b1010 Q#
b1100 g#
b1110 ~#
b1101 8$
b1010 P$
b1011 l"
b1001 $#
b1011 :#
b1111 P#
b1011 f#
b1001 }#
b1011 7$
b1111 O$
b1111011100110111 Q
b1010110111101100 :
b1010110111101100 g"
b1111101110011011 8
b1111101110011011 F
b1111101110011011 N
b1111101110011011 f"
1D
1"
b101001000010011 '
b101001000010011 9
b10001100100 &
b10001100100 5
1.
1A
1-
1@
00
0B
1/
b1000 3
12
1!
#850
02
0!
#900
0"$
b110 h"
0n"
b1110 i"
0/$
0o"
b0 j"
0{#
b0 h#
0+$
b1101 !$
1G$
b1110101110110101 5"
b1110101110110101 {
b1110101110110101 r
b1110101110110101 !"
b1110101110110101 T"
b1110101110110101 B"
b1110101110110101 9"
b1110101110110101 F"
b1110101110110101 a"
b1110101110110101 X"
b1110101110110101 e"
0D
0"
b1010100101010 C
b1010100101010 #
b1010100101010 >
0w#
1|#
0'$
1,$
06$
1W$
0\$
0f$
b1 S$
0m#
b1010 i#
01$
b10 #$
1C$
b1111 9$
1I$
0N$
b1010100101010 7
b1010100101010 k"
b101 ;$
b1111010111011010 J
b1111010111011010 c
b1111010111011010 #"
b1111010111011010 ("
b1111010111011010 -"
b1111010111011010 2"
b1111010111011010 d
b1111010111011010 h
b1111010111011010 s
b1111010111011010 x
b1111010111011010 i
b1111010111011010 m
b1111010111011010 o
b1111010111011010 j
b1111010111011010 q
b1111010111011010 e
b1111010111011010 u
b1111010111011010 v
b1111010111011010 z
b1111010111011010 |
b1111010111011010 w
b1111010111011010 ~
b1111010111011010 I
b1111010111011010 %"
b1111010111011010 <
b1111010111011010 H
b1111010111011010 &"
b1111010111011010 *"
b1111010111011010 G"
b1111010111011010 L"
b1111010111011010 Q"
b1111010111011010 +"
b1111010111011010 /"
b1111010111011010 :"
b1111010111011010 ?"
b1111010111011010 0"
b1111010111011010 4"
b1111010111011010 6"
b1111010111011010 1"
b1111010111011010 8"
b1111010111011010 ,"
b1111010111011010 <"
b1111010111011010 ="
b1111010111011010 A"
b1111010111011010 C"
b1111010111011010 >"
b1111010111011010 E"
b1111010111011010 '"
b1111010111011010 I"
b1111010111011010 J"
b1111010111011010 N"
b1111010111011010 Y"
b1111010111011010 ^"
b1111010111011010 O"
b1111010111011010 S"
b1111010111011010 U"
b1111010111011010 P"
b1111010111011010 W"
b1111010111011010 K"
b1111010111011010 ["
b1111010111011010 \"
b1111010111011010 `"
b1111010111011010 b"
b1111010111011010 ]"
b1111010111011010 d"
0?
0}"
0"#
b0 p"
1##
1,#
0-#
01#
08#
19#
1X#
0Y#
0\#
1]#
0d#
b1 T#
1e#
b1110 U#
b1110101110110101 n
b1111010111011010 W
b1111010111011010 ^
b1110101110110101 _
0u"
b1010 q"
14#
b101 (#
05#
b1000 )#
1J#
0K#
0N#
b101 >#
1O#
b1010 ?#
0`
0""
0{"
0!#
1+#
0/#
07#
1E#
1W#
0[#
0c#
0t#
0y#
1%$
0)$
03$
1A$
1U$
0Y$
0c$
b1111010111011010 L
b1111010111011010 U
b1111010111011010 a
b1111010111011010 f
b1111010111011010 k
b1111010111011010 V
b1111010111011010 Z
b1111010111011010 \
b1110101110110101 [
0r"
12#
0D#
1H#
0L#
0j#
1-$
0@$
1E$
0J$
b0 E
b0 m"
b101 %#
b1111 ;#
b1 Q#
b0 g#
b101 ~#
b1111 8$
b1 P$
b1111010111011010 K
b1111010111011010 P
b1111010111011010 S
b1111010111011010 X
b1010 l"
b1101 $#
b101 :#
b1010 f#
b1101 }#
b101 7$
b1110101110110101 Q
b1111101010000 :
b1111101010000 g"
b1111010111011010 8
b1111010111011010 F
b1111010111011010 N
b1111010111011010 f"
b1001 3
b1111101010000 '
b1111101010000 9
b1111010111011010 &
b1111010111011010 5
0.
0A
0-
0@
10
1B
b1010100110000111 ,
0/
b101011001110111 (
12
1!
#950
02
0!
